\relax 
\providecommand\babel@aux[2]{}
\@nameuse{bbl@beforestart}
\catcode `"\active 
\providecommand\csxdef[2]{}
\@writefile{toc}{\providecommand\autonum@processReference[2]{}}
\@writefile{lof}{\providecommand\autonum@processReference[2]{}}
\babel@aux{russian}{}
\@writefile{lof}{\contentsline {figure}{\numberline {1}{\ignorespaces Дисперсионные кривые для Y среза наверху и X среза внизу}}{1}{}\protected@file@percent }
\@writefile{lof}{\contentsline {figure}{\numberline {2}{\ignorespaces Фазовые скорости для Y среза слева и X среза справа}}{2}{}\protected@file@percent }
\@writefile{lof}{\contentsline {figure}{\numberline {3}{\ignorespaces Фазовые скорости для Y среза слева и X среза справа для измененного материала}}{2}{}\protected@file@percent }
\gdef \@abspage@last{2}
